\relax 
\providecommand\zref@newlabel[2]{}
\providecommand\hyper@newdestlabel[2]{}
\providecommand\babel@aux[2]{}
\@nameuse{bbl@beforestart}
\providecommand\HyperFirstAtBeginDocument{\AtBeginDocument}
\HyperFirstAtBeginDocument{\ifx\hyper@anchor\@undefined
\global\let\oldcontentsline\contentsline
\gdef\contentsline#1#2#3#4{\oldcontentsline{#1}{#2}{#3}}
\global\let\oldnewlabel\newlabel
\gdef\newlabel#1#2{\newlabelxx{#1}#2}
\gdef\newlabelxx#1#2#3#4#5#6{\oldnewlabel{#1}{{#2}{#3}}}
\AtEndDocument{\ifx\hyper@anchor\@undefined
\let\contentsline\oldcontentsline
\let\newlabel\oldnewlabel
\fi}
\fi}
\global\let\hyper@last\relax 
\gdef\HyperFirstAtBeginDocument#1{#1}
\providecommand\HyField@AuxAddToFields[1]{}
\providecommand\HyField@AuxAddToCoFields[2]{}
\providecommand\BKM@entry[2]{}
\babel@aux{english}{}
\BKM@entry{id=1,open,dest={73656374696F6E2A2E32},color={.46667 .61569 .27843},flags=2,srcline={127}}{50726F6772616D6D65}
\ttl@writefile{ptc}{\ttl@starttoc{default@1}}
\pgfsyspdfmark {pgfid2}{4843471}{90116996}
\pgfsyspdfmark {pgfid1}{4843471}{34736006}
\@writefile{toc}{\contentsline {part}{\setlength  \fboxsep {0pt}\noindent \colorbox {eougreen!40}{\strut  \parbox [c][.7cm]{\linewidth }{\Large  \sffamily  \centering Programme\hskip 1em\relax \mbox  {}}}}{3}{section*.2}\protected@file@percent }
\BKM@entry{id=2,open,dest={636861707465722E31},flags=2,srcline={4}}{31204D6F6E6461792C2032367468204175677573742C2032303139}
\BKM@entry{id=3,open,dest={73656374696F6E2E312E31},srcline={20}}{312E3120506C656E617279}
\@writefile{toc}{\contentsline {chapter}{\numberline {1}Monday, 26th August, 2019}{4}{chapter.1}\protected@file@percent }
\@writefile{lof}{\addvspace {10\p@ }}
\@writefile{lot}{\addvspace {10\p@ }}
\pgfsyspdfmark {pgfid4}{3729359}{106147885}
\pgfsyspdfmark {pgfid3}{3729359}{50766895}
\@writefile{toc}{\contentsline {section}{\numberline {1.1}Plenary}{4}{section.1.1}\protected@file@percent }
\BKM@entry{id=4,open,dest={636861707465722E32},flags=2,srcline={42}}{3220547565736461792C2032377468204175677573742C2032303139}
\BKM@entry{id=5,open,dest={73656374696F6E2E322E31},srcline={44}}{322E3120506C656E617279}
\BKM@entry{id=6,open,dest={73656374696F6E2E322E32},srcline={64}}{322E3220506172616C6C656C2073796D706F7369612049}
\@writefile{toc}{\contentsline {chapter}{\numberline {2}Tuesday, 27th August, 2019}{5}{chapter.2}\protected@file@percent }
\@writefile{lof}{\addvspace {10\p@ }}
\@writefile{lot}{\addvspace {10\p@ }}
\pgfsyspdfmark {pgfid6}{3729359}{106147885}
\pgfsyspdfmark {pgfid5}{3729359}{50766895}
\@writefile{toc}{\contentsline {section}{\numberline {2.1}Plenary}{5}{section.2.1}\protected@file@percent }
\@writefile{toc}{\contentsline {section}{\numberline {2.2}Parallel symposia I}{5}{section.2.2}\protected@file@percent }
\BKM@entry{id=7,open,dest={73656374696F6E2E322E33},srcline={258}}{322E3320506C656E617279}
\BKM@entry{id=8,open,dest={73656374696F6E2E322E34},srcline={285}}{322E3420506172616C6C656C206F72616C2073657373696F6E732049}
\@writefile{toc}{\contentsline {section}{\numberline {2.3}Plenary}{7}{section.2.3}\protected@file@percent }
\@writefile{toc}{\contentsline {section}{\numberline {2.4}Parallel oral sessions I}{7}{section.2.4}\protected@file@percent }
\BKM@entry{id=9,open,dest={636861707465722E33},flags=2,srcline={993}}{33205765646E65736461792C2032387468204175677573742C2032303139}
\BKM@entry{id=10,open,dest={73656374696F6E2E332E31},srcline={995}}{332E3120506C656E617279}
\BKM@entry{id=11,open,dest={73656374696F6E2E332E32},srcline={1015}}{332E3220506172616C6C656C2073796D706F736961204949}
\@writefile{toc}{\contentsline {chapter}{\numberline {3}Wednesday, 28th August, 2019}{15}{chapter.3}\protected@file@percent }
\@writefile{lof}{\addvspace {10\p@ }}
\@writefile{lot}{\addvspace {10\p@ }}
\pgfsyspdfmark {pgfid8}{3729359}{106147885}
\pgfsyspdfmark {pgfid7}{3729359}{50766895}
\@writefile{toc}{\contentsline {section}{\numberline {3.1}Plenary}{15}{section.3.1}\protected@file@percent }
\@writefile{toc}{\contentsline {section}{\numberline {3.2}Parallel symposia II}{15}{section.3.2}\protected@file@percent }
\BKM@entry{id=12,open,dest={73656374696F6E2E332E33},srcline={1209}}{332E3320506C656E617279}
\BKM@entry{id=13,open,dest={73656374696F6E2E332E34},srcline={1236}}{332E3420506172616C6C656C206F72616C2073657373696F6E73204949}
\@writefile{toc}{\contentsline {section}{\numberline {3.3}Plenary}{17}{section.3.3}\protected@file@percent }
\@writefile{toc}{\contentsline {section}{\numberline {3.4}Parallel oral sessions II}{17}{section.3.4}\protected@file@percent }
\BKM@entry{id=14,open,dest={636861707465722E34},flags=2,srcline={1952}}{342054687572736461792C2032397468204175677573742C2032303139}
\BKM@entry{id=15,open,dest={73656374696F6E2E342E31},srcline={1954}}{342E3120457863757273696F6E}
\@writefile{toc}{\contentsline {chapter}{\numberline {4}Thursday, 29th August, 2019}{26}{chapter.4}\protected@file@percent }
\@writefile{lof}{\addvspace {10\p@ }}
\@writefile{lot}{\addvspace {10\p@ }}
\pgfsyspdfmark {pgfid10}{3729359}{106147885}
\pgfsyspdfmark {pgfid9}{3729359}{50766895}
\@writefile{toc}{\contentsline {section}{\numberline {4.1}Excursion}{26}{section.4.1}\protected@file@percent }
\BKM@entry{id=16,open,dest={636861707465722E35},flags=2,srcline={1970}}{35204672696461792C2033307468204175677573742C2032303139}
\BKM@entry{id=17,open,dest={73656374696F6E2E352E31},srcline={1972}}{352E3120506C656E617279}
\BKM@entry{id=18,open,dest={73656374696F6E2E352E32},srcline={1992}}{352E3220506172616C6C656C206F72616C2073657373696F6E7320494949}
\@writefile{toc}{\contentsline {chapter}{\numberline {5}Friday, 30th August, 2019}{27}{chapter.5}\protected@file@percent }
\@writefile{lof}{\addvspace {10\p@ }}
\@writefile{lot}{\addvspace {10\p@ }}
\pgfsyspdfmark {pgfid12}{3729359}{106147885}
\pgfsyspdfmark {pgfid11}{3729359}{50766895}
\@writefile{toc}{\contentsline {section}{\numberline {5.1}Plenary}{27}{section.5.1}\protected@file@percent }
\@writefile{toc}{\contentsline {section}{\numberline {5.2}Parallel oral sessions III}{27}{section.5.2}\protected@file@percent }
\BKM@entry{id=19,open,dest={73656374696F6E2E352E33},srcline={2217}}{352E3320506C656E617279}
\BKM@entry{id=20,open,dest={73656374696F6E2E352E34},srcline={2237}}{352E3420506172616C6C656C206F72616C2073657373696F6E73204956}
\@writefile{toc}{\contentsline {section}{\numberline {5.3}Plenary}{29}{section.5.3}\protected@file@percent }
\@writefile{toc}{\contentsline {section}{\numberline {5.4}Parallel oral sessions IV}{30}{section.5.4}\protected@file@percent }
\ttl@finishall
\gdef \@abspage@last{32}
