\relax 
\providecommand\zref@newlabel[2]{}
\providecommand\hyper@newdestlabel[2]{}
\providecommand\babel@aux[2]{}
\@nameuse{bbl@beforestart}
\providecommand\HyperFirstAtBeginDocument{\AtBeginDocument}
\HyperFirstAtBeginDocument{\ifx\hyper@anchor\@undefined
\global\let\oldcontentsline\contentsline
\gdef\contentsline#1#2#3#4{\oldcontentsline{#1}{#2}{#3}}
\global\let\oldnewlabel\newlabel
\gdef\newlabel#1#2{\newlabelxx{#1}#2}
\gdef\newlabelxx#1#2#3#4#5#6{\oldnewlabel{#1}{{#2}{#3}}}
\AtEndDocument{\ifx\hyper@anchor\@undefined
\let\contentsline\oldcontentsline
\let\newlabel\oldnewlabel
\fi}
\fi}
\global\let\hyper@last\relax 
\gdef\HyperFirstAtBeginDocument#1{#1}
\providecommand\HyField@AuxAddToFields[1]{}
\providecommand\HyField@AuxAddToCoFields[2]{}
\providecommand\BKM@entry[2]{}
\babel@aux{english}{}
\pgfsyspdfmark {pgfid2}{0}{55380990}
\pgfsyspdfmark {pgfid1}{4843471}{50766895}
\BKM@entry{id=1,open,dest={706172742E31},color={.46667 .61569 .27843},flags=2,srcline={176}}{506172742049205C3230342047656E6572616C20696E666F726D6174696F6E}
\@writefile{toc}{\contentsline {part}{\@mypartnumtocformat {I}{General information}}{5}{part.1}\protected@file@percent }
\ttl@writefile{ptc}{\ttl@starttoc{default@1}}
\pgfsyspdfmark {pgfid4}{0}{55380990}
\pgfsyspdfmark {pgfid3}{4843471}{34736006}
\BKM@entry{id=2,open,dest={636861707465722E31},flags=2,srcline={184}}{312057656C636F6D65206D65737361676573}
\BKM@entry{id=3,open,dest={73656374696F6E2E312E31},srcline={186}}{312E31204D6573736167652066726F6D2074686520454F5520507265736964656E74}
\BKM@entry{id=4,open,dest={73656374696F6E2E312E32},srcline={206}}{312E32204D6573736167652066726F6D206C6F63616C206F7267616E697A657273}
\@writefile{toc}{\contentsline {chapter}{\numberline {1}Welcome messages}{6}{chapter.1}\protected@file@percent }
\@writefile{lof}{\addvspace {10\p@ }}
\@writefile{lot}{\addvspace {10\p@ }}
\pgfsyspdfmark {pgfid6}{0}{55380990}
\pgfsyspdfmark {pgfid5}{3729359}{50766895}
\@writefile{toc}{\contentsline {section}{\numberline {1.1}Message from the EOU President}{6}{section.1.1}\protected@file@percent }
\@writefile{toc}{\contentsline {section}{\numberline {1.2}Message from local organizers}{6}{section.1.2}\protected@file@percent }
\BKM@entry{id=5,open,dest={636861707465722E32},flags=2,srcline={245}}{32204F7267616E6973657273}
\BKM@entry{id=6,open,dest={73656374696F6E2E322E31},srcline={247}}{322E31204C6F63616C204F7267616E6973696E6720436F6D6D6974746565}
\BKM@entry{id=7,open,dest={73656374696F6E2E322E32},srcline={270}}{322E3220536369656E74696669632050726F6772616D6D6520436F6D6D6974746565}
\@writefile{toc}{\contentsline {chapter}{\numberline {2}Organisers}{8}{chapter.2}\protected@file@percent }
\@writefile{lof}{\addvspace {10\p@ }}
\@writefile{lot}{\addvspace {10\p@ }}
\pgfsyspdfmark {pgfid8}{0}{55380990}
\pgfsyspdfmark {pgfid7}{3729359}{50766895}
\@writefile{toc}{\contentsline {section}{\numberline {2.1}Local Organising Committee}{8}{section.2.1}\protected@file@percent }
\@writefile{toc}{\contentsline {section}{\numberline {2.2}Scientific Programme Committee}{8}{section.2.2}\protected@file@percent }
\BKM@entry{id=8,open,dest={636861707465722E33},flags=2,srcline={289}}{332052656C61746564206576656E7473}
\@writefile{toc}{\contentsline {chapter}{\numberline {3}Related events}{9}{chapter.3}\protected@file@percent }
\@writefile{lof}{\addvspace {10\p@ }}
\@writefile{lot}{\addvspace {10\p@ }}
\pgfsyspdfmark {pgfid10}{0}{55380990}
\pgfsyspdfmark {pgfid9}{3729359}{50766895}
\BKM@entry{id=9,open,dest={706172742E32},color={.46667 .61569 .27843},flags=2,srcline={316}}{50617274204949205C3230342050726F6772616D6D65}
\@writefile{toc}{\contentsline {part}{\@mypartnumtocformat {II}{Programme}}{10}{part.2}\protected@file@percent }
\ttl@writefile{ptc}{\ttl@stoptoc{default@1}}
\ttl@writefile{ptc}{\ttl@starttoc{default@2}}
\pgfsyspdfmark {pgfid12}{0}{55380990}
\pgfsyspdfmark {pgfid11}{4843471}{34736006}
\BKM@entry{id=10,open,dest={636861707465722E34},flags=2,srcline={4}}{34204D6F6E6461792C2032367468204175677573742C2032303139}
\BKM@entry{id=11,open,dest={73656374696F6E2E342E31},srcline={20}}{342E3120506C656E617279}
\@writefile{toc}{\contentsline {chapter}{\numberline {4}Monday, 26th August, 2019}{11}{chapter.4}\protected@file@percent }
\@writefile{lof}{\addvspace {10\p@ }}
\@writefile{lot}{\addvspace {10\p@ }}
\pgfsyspdfmark {pgfid14}{0}{55380990}
\pgfsyspdfmark {pgfid13}{3729359}{50766895}
\@writefile{toc}{\contentsline {section}{\numberline {4.1}Plenary}{11}{section.4.1}\protected@file@percent }
\BKM@entry{id=12,open,dest={636861707465722E35},flags=2,srcline={43}}{3520547565736461792C2032377468204175677573742C2032303139}
\BKM@entry{id=13,open,dest={73656374696F6E2E352E31},srcline={45}}{352E3120506C656E617279}
\BKM@entry{id=14,open,dest={73656374696F6E2E352E32},srcline={66}}{352E3220506172616C6C656C2073796D706F7369612049}
\@writefile{toc}{\contentsline {chapter}{\numberline {5}Tuesday, 27th August, 2019}{12}{chapter.5}\protected@file@percent }
\@writefile{lof}{\addvspace {10\p@ }}
\@writefile{lot}{\addvspace {10\p@ }}
\pgfsyspdfmark {pgfid16}{0}{55380990}
\pgfsyspdfmark {pgfid15}{3729359}{50766895}
\@writefile{toc}{\contentsline {section}{\numberline {5.1}Plenary}{12}{section.5.1}\protected@file@percent }
\@writefile{toc}{\contentsline {section}{\numberline {5.2}Parallel symposia I}{12}{section.5.2}\protected@file@percent }
\BKM@entry{id=15,open,dest={73656374696F6E2E352E33},srcline={285}}{352E3320506C656E617279}
\@writefile{toc}{\contentsline {section}{\numberline {5.3}Plenary}{14}{section.5.3}\protected@file@percent }
\BKM@entry{id=16,open,dest={73656374696F6E2E352E34},srcline={313}}{352E3420506172616C6C656C206F72616C2073657373696F6E732049}
\@writefile{toc}{\contentsline {section}{\numberline {5.4}Parallel oral sessions I}{15}{section.5.4}\protected@file@percent }
\BKM@entry{id=17,open,dest={636861707465722E36},flags=2,srcline={1130}}{36205765646E65736461792C2032387468204175677573742C2032303139}
\BKM@entry{id=18,open,dest={73656374696F6E2E362E31},srcline={1132}}{362E3120506C656E617279}
\BKM@entry{id=19,open,dest={73656374696F6E2E362E32},srcline={1153}}{362E3220506172616C6C656C2073796D706F736961204949}
\@writefile{toc}{\contentsline {chapter}{\numberline {6}Wednesday, 28th August, 2019}{25}{chapter.6}\protected@file@percent }
\@writefile{lof}{\addvspace {10\p@ }}
\@writefile{lot}{\addvspace {10\p@ }}
\pgfsyspdfmark {pgfid18}{0}{55380990}
\pgfsyspdfmark {pgfid17}{3729359}{50766895}
\@writefile{toc}{\contentsline {section}{\numberline {6.1}Plenary}{25}{section.6.1}\protected@file@percent }
\@writefile{toc}{\contentsline {section}{\numberline {6.2}Parallel symposia II}{25}{section.6.2}\protected@file@percent }
\BKM@entry{id=20,open,dest={73656374696F6E2E362E33},srcline={1372}}{362E3320506C656E617279}
\BKM@entry{id=21,open,dest={73656374696F6E2E362E34},srcline={1400}}{362E3420506172616C6C656C206F72616C2073657373696F6E73204949}
\@writefile{toc}{\contentsline {section}{\numberline {6.3}Plenary}{28}{section.6.3}\protected@file@percent }
\@writefile{toc}{\contentsline {section}{\numberline {6.4}Parallel oral sessions II}{28}{section.6.4}\protected@file@percent }
\BKM@entry{id=22,open,dest={636861707465722E37},flags=2,srcline={2225}}{372054687572736461792C2032397468204175677573742C2032303139}
\BKM@entry{id=23,open,dest={73656374696F6E2E372E31},srcline={2227}}{372E3120457863757273696F6E}
\@writefile{toc}{\contentsline {chapter}{\numberline {7}Thursday, 29th August, 2019}{38}{chapter.7}\protected@file@percent }
\@writefile{lof}{\addvspace {10\p@ }}
\@writefile{lot}{\addvspace {10\p@ }}
\pgfsyspdfmark {pgfid20}{0}{55380990}
\pgfsyspdfmark {pgfid19}{3729359}{50766895}
\@writefile{toc}{\contentsline {section}{\numberline {7.1}Excursion}{38}{section.7.1}\protected@file@percent }
\BKM@entry{id=24,open,dest={636861707465722E38},flags=2,srcline={2243}}{38204672696461792C2033307468204175677573742C2032303139}
\BKM@entry{id=25,open,dest={73656374696F6E2E382E31},srcline={2245}}{382E3120506C656E617279}
\BKM@entry{id=26,open,dest={73656374696F6E2E382E32},srcline={2266}}{382E3220506172616C6C656C206F72616C2073657373696F6E7320494949}
\@writefile{toc}{\contentsline {chapter}{\numberline {8}Friday, 30th August, 2019}{39}{chapter.8}\protected@file@percent }
\@writefile{lof}{\addvspace {10\p@ }}
\@writefile{lot}{\addvspace {10\p@ }}
\pgfsyspdfmark {pgfid22}{0}{55380990}
\pgfsyspdfmark {pgfid21}{3729359}{50766895}
\@writefile{toc}{\contentsline {section}{\numberline {8.1}Plenary}{39}{section.8.1}\protected@file@percent }
\@writefile{toc}{\contentsline {section}{\numberline {8.2}Parallel oral sessions III}{39}{section.8.2}\protected@file@percent }
\BKM@entry{id=27,open,dest={73656374696F6E2E382E33},srcline={2521}}{382E3320506C656E617279}
\BKM@entry{id=28,open,dest={73656374696F6E2E382E34},srcline={2542}}{382E3420506172616C6C656C206F72616C2073657373696F6E73204956}
\@writefile{toc}{\contentsline {section}{\numberline {8.3}Plenary}{42}{section.8.3}\protected@file@percent }
\@writefile{toc}{\contentsline {section}{\numberline {8.4}Parallel oral sessions IV}{42}{section.8.4}\protected@file@percent }
\BKM@entry{id=29,open,dest={706172742E33},color={.46667 .61569 .27843},flags=2,srcline={323}}{5061727420494949205C32303420416273747261637473}
\@writefile{toc}{\contentsline {part}{\@mypartnumtocformat {III}{Abstracts}}{46}{part.3}\protected@file@percent }
\ttl@writefile{ptc}{\ttl@stoptoc{default@2}}
\ttl@writefile{ptc}{\ttl@starttoc{default@3}}
\pgfsyspdfmark {pgfid24}{0}{55380990}
\pgfsyspdfmark {pgfid23}{4843471}{34736006}
\BKM@entry{id=30,open,dest={636861707465722E39},flags=2,srcline={4}}{3920506C656E6172696573}
\@writefile{toc}{\contentsline {chapter}{\numberline {9}Plenaries}{47}{chapter.9}\protected@file@percent }
\@writefile{lof}{\addvspace {10\p@ }}
\@writefile{lot}{\addvspace {10\p@ }}
\pgfsyspdfmark {pgfid26}{0}{55380990}
\pgfsyspdfmark {pgfid25}{3729359}{50766895}
\newlabel{entry:P-0}{{9}{47}{Plenaries}{section*.55}{}}
\newlabel{entry:P-1}{{9}{47}{Plenaries}{section*.56}{}}
\newlabel{entry:P-2}{{9}{47}{Plenaries}{section*.57}{}}
\newlabel{entry:P-3}{{9}{48}{Plenaries}{section*.58}{}}
\newlabel{entry:P-4}{{9}{48}{Plenaries}{section*.59}{}}
\newlabel{entry:P-5}{{9}{49}{Plenaries}{section*.60}{}}
\newlabel{entry:P-6}{{9}{49}{Plenaries}{section*.61}{}}
\BKM@entry{id=31,open,dest={636861707465722E3130},flags=2,srcline={180}}{31302053796D706F736961}
\@writefile{toc}{\contentsline {chapter}{\numberline {10}Symposia}{50}{chapter.10}\protected@file@percent }
\@writefile{lof}{\addvspace {10\p@ }}
\@writefile{lot}{\addvspace {10\p@ }}
\pgfsyspdfmark {pgfid28}{0}{55380990}
\pgfsyspdfmark {pgfid27}{3729359}{50766895}
\newlabel{entry:S1-1}{{10}{50}{Symposium: Birds and plant volatile organic compounds}{section*.63}{}}
\newlabel{entry:S1-2}{{10}{50}{Symposium: Birds and plant volatile organic compounds}{section*.64}{}}
\newlabel{entry:S1-3}{{10}{51}{Symposium: Birds and plant volatile organic compounds}{section*.65}{}}
\newlabel{entry:S1-4}{{10}{51}{Symposium: Birds and plant volatile organic compounds}{section*.66}{}}
\newlabel{entry:S1-5}{{10}{52}{Symposium: Birds and plant volatile organic compounds}{section*.67}{}}
\newlabel{entry:S5-1}{{10}{52}{Symposium: Forest bird ecology and conservation: research advances and future directions}{section*.69}{}}
\newlabel{entry:S5-2}{{10}{53}{Symposium: Forest bird ecology and conservation: research advances and future directions}{section*.70}{}}
\newlabel{entry:S5-3}{{10}{53}{Symposium: Forest bird ecology and conservation: research advances and future directions}{section*.71}{}}
\newlabel{entry:S5-4}{{10}{54}{Symposium: Forest bird ecology and conservation: research advances and future directions}{section*.72}{}}
\newlabel{entry:S5-5}{{10}{54}{Symposium: Forest bird ecology and conservation: research advances and future directions}{section*.73}{}}
\newlabel{entry:S4-1}{{10}{55}{Symposium: From genes to behaviour: what mechanistic studies can tell us about migration}{section*.75}{}}
\newlabel{entry:S4-2}{{10}{55}{Symposium: From genes to behaviour: what mechanistic studies can tell us about migration}{section*.76}{}}
\newlabel{entry:S4-3}{{10}{56}{Symposium: From genes to behaviour: what mechanistic studies can tell us about migration}{section*.77}{}}
\newlabel{entry:S4-4}{{10}{56}{Symposium: From genes to behaviour: what mechanistic studies can tell us about migration}{section*.78}{}}
\newlabel{entry:S4-5}{{10}{57}{Symposium: From genes to behaviour: what mechanistic studies can tell us about migration}{section*.79}{}}
\newlabel{entry:S8-1}{{10}{57}{Symposium: Immune function as a mediator of trade-offs}{section*.81}{}}
\newlabel{entry:S8-2}{{10}{58}{Symposium: Immune function as a mediator of trade-offs}{section*.82}{}}
\newlabel{entry:S8-3}{{10}{58}{Symposium: Immune function as a mediator of trade-offs}{section*.83}{}}
\newlabel{entry:S8-4}{{10}{59}{Symposium: Immune function as a mediator of trade-offs}{section*.84}{}}
\newlabel{entry:S8-5}{{10}{59}{Symposium: Immune function as a mediator of trade-offs}{section*.85}{}}
\newlabel{entry:S3-1}{{10}{60}{Symposium: Invasive birds in Europe: trends, drivers and impacts as a mediator of trade-offs}{section*.87}{}}
\newlabel{entry:S3-2}{{10}{60}{Symposium: Invasive birds in Europe: trends, drivers and impacts as a mediator of trade-offs}{section*.88}{}}
\newlabel{entry:S3-3}{{10}{61}{Symposium: Invasive birds in Europe: trends, drivers and impacts as a mediator of trade-offs}{section*.89}{}}
\newlabel{entry:S3-4}{{10}{61}{Symposium: Invasive birds in Europe: trends, drivers and impacts as a mediator of trade-offs}{section*.90}{}}
\newlabel{entry:S3-5}{{10}{62}{Symposium: Invasive birds in Europe: trends, drivers and impacts as a mediator of trade-offs}{section*.91}{}}
\newlabel{entry:S7-1}{{10}{62}{Symposium: Living at high elevations – adaptations and current challenges}{section*.93}{}}
\newlabel{entry:S7-2}{{10}{63}{Symposium: Living at high elevations – adaptations and current challenges}{section*.94}{}}
\newlabel{entry:S7-3}{{10}{63}{Symposium: Living at high elevations – adaptations and current challenges}{section*.95}{}}
\newlabel{entry:S7-4}{{10}{64}{Symposium: Living at high elevations – adaptations and current challenges}{section*.96}{}}
\newlabel{entry:S7-5}{{10}{64}{Symposium: Living at high elevations – adaptations and current challenges}{section*.97}{}}
\newlabel{entry:S6-1}{{10}{65}{Symposium: Number and distribution of birds of Northern Eurasia}{section*.99}{}}
\newlabel{entry:S6-2}{{10}{65}{Symposium: Number and distribution of birds of Northern Eurasia}{section*.100}{}}
\newlabel{entry:S6-3}{{10}{66}{Symposium: Number and distribution of birds of Northern Eurasia}{section*.101}{}}
\newlabel{entry:S6-4}{{10}{67}{Symposium: Number and distribution of birds of Northern Eurasia}{section*.102}{}}
\newlabel{entry:S6-5}{{10}{67}{Symposium: Number and distribution of birds of Northern Eurasia}{section*.103}{}}
\newlabel{entry:S2-1}{{10}{68}{Symposium: Shifting the focus: avian life-history stages from the perspective of understudied hormonal systems}{section*.105}{}}
\newlabel{entry:S2-2}{{10}{68}{Symposium: Shifting the focus: avian life-history stages from the perspective of understudied hormonal systems}{section*.106}{}}
\newlabel{entry:S2-3}{{10}{68}{Symposium: Shifting the focus: avian life-history stages from the perspective of understudied hormonal systems}{section*.107}{}}
\newlabel{entry:S2-4}{{10}{69}{Symposium: Shifting the focus: avian life-history stages from the perspective of understudied hormonal systems}{section*.108}{}}
\newlabel{entry:S2-5}{{10}{69}{Symposium: Shifting the focus: avian life-history stages from the perspective of understudied hormonal systems}{section*.109}{}}
\newlabel{entry:S9-1}{{10}{70}{Symposium: The effects of weather on birds}{section*.111}{}}
\newlabel{entry:S9-2}{{10}{70}{Symposium: The effects of weather on birds}{section*.112}{}}
\newlabel{entry:S9-3}{{10}{71}{Symposium: The effects of weather on birds}{section*.113}{}}
\newlabel{entry:S9-4}{{10}{71}{Symposium: The effects of weather on birds}{section*.114}{}}
\newlabel{entry:S9-5}{{10}{72}{Symposium: The effects of weather on birds}{section*.115}{}}
\newlabel{entry:S10-1}{{10}{72}{Symposium: Urban ornithology: threats and opportunities}{section*.117}{}}
\newlabel{entry:S10-2}{{10}{73}{Symposium: Urban ornithology: threats and opportunities}{section*.118}{}}
\newlabel{entry:S10-3}{{10}{73}{Symposium: Urban ornithology: threats and opportunities}{section*.119}{}}
\newlabel{entry:S10-4}{{10}{74}{Symposium: Urban ornithology: threats and opportunities}{section*.120}{}}
\newlabel{entry:S10-5}{{10}{74}{Symposium: Urban ornithology: threats and opportunities}{section*.121}{}}
\BKM@entry{id=32,open,dest={636861707465722E3131},flags=2,srcline={1369}}{3131204F72616C2073657373696F6E73}
\@writefile{toc}{\contentsline {chapter}{\numberline {11}Oral sessions}{75}{chapter.11}\protected@file@percent }
\@writefile{lof}{\addvspace {10\p@ }}
\@writefile{lot}{\addvspace {10\p@ }}
\pgfsyspdfmark {pgfid30}{0}{55380990}
\pgfsyspdfmark {pgfid29}{3729359}{50766895}
\newlabel{entry:OS-13}{{11}{75}{Oral Session: Bird communities}{section*.123}{}}
\newlabel{entry:OS-14}{{11}{76}{Oral Session: Bird communities}{section*.124}{}}
\newlabel{entry:OS-15}{{11}{76}{Oral Session: Bird communities}{section*.125}{}}
\newlabel{entry:OS-16}{{11}{77}{Oral Session: Bird communities}{section*.126}{}}
\newlabel{entry:OS-17}{{11}{77}{Oral Session: Bird communities}{section*.127}{}}
\newlabel{entry:OS-18}{{11}{78}{Oral Session: Bird communities}{section*.128}{}}
\newlabel{entry:OS-19}{{11}{78}{Oral Session: Birds and Humans}{section*.130}{}}
\newlabel{entry:OS-20}{{11}{79}{Oral Session: Birds and Humans}{section*.131}{}}
\newlabel{entry:OS-21}{{11}{79}{Oral Session: Birds and Humans}{section*.132}{}}
\newlabel{entry:OS-22}{{11}{80}{Oral Session: Birds and Humans}{section*.133}{}}
\newlabel{entry:OS-23}{{11}{80}{Oral Session: Birds and Humans}{section*.134}{}}
\newlabel{entry:OS-24}{{11}{81}{Oral Session: Birds and Humans}{section*.135}{}}
\newlabel{entry:OS-43}{{11}{81}{Oral Session: Climate Change}{section*.137}{}}
\newlabel{entry:OS-44}{{11}{82}{Oral Session: Climate Change}{section*.138}{}}
\newlabel{entry:OS-45}{{11}{82}{Oral Session: Climate Change}{section*.139}{}}
\newlabel{entry:OS-46}{{11}{83}{Oral Session: Climate Change}{section*.140}{}}
\newlabel{entry:OS-47}{{11}{83}{Oral Session: Climate Change}{section*.141}{}}
\newlabel{entry:OS-48}{{11}{84}{Oral Session: Climate Change}{section*.142}{}}
\newlabel{entry:OS-79}{{11}{84}{Oral Session: Conservation}{section*.144}{}}
\newlabel{entry:OS-80}{{11}{85}{Oral Session: Conservation}{section*.145}{}}
\newlabel{entry:OS-81}{{11}{85}{Oral Session: Conservation}{section*.146}{}}
\newlabel{entry:OS-82}{{11}{86}{Oral Session: Conservation}{section*.147}{}}
\newlabel{entry:OS-83}{{11}{86}{Oral Session: Conservation}{section*.148}{}}
\newlabel{entry:OS-84}{{11}{87}{Oral Session: Conservation}{section*.149}{}}
\newlabel{entry:OS-1}{{11}{88}{Oral Session: Dispersal and Population structure}{section*.151}{}}
\newlabel{entry:OS-2}{{11}{88}{Oral Session: Dispersal and Population structure}{section*.152}{}}
\newlabel{entry:OS-3}{{11}{89}{Oral Session: Dispersal and Population structure}{section*.153}{}}
\newlabel{entry:OS-4}{{11}{89}{Oral Session: Dispersal and Population structure}{section*.154}{}}
\newlabel{entry:OS-5}{{11}{90}{Oral Session: Dispersal and Population structure}{section*.155}{}}
\newlabel{entry:OS-6}{{11}{90}{Oral Session: Dispersal and Population structure}{section*.156}{}}
\newlabel{entry:OS-10}{{11}{91}{Oral Session: Energy and Metabolism}{section*.158}{}}
\newlabel{entry:OS-11}{{11}{91}{Oral Session: Energy and Metabolism}{section*.159}{}}
\newlabel{entry:OS-12}{{11}{92}{Oral Session: Energy and Metabolism}{section*.160}{}}
\newlabel{entry:OS-7}{{11}{92}{Oral Session: Energy and Metabolism}{section*.161}{}}
\newlabel{entry:OS-8}{{11}{92}{Oral Session: Energy and Metabolism}{section*.162}{}}
\newlabel{entry:OS-9}{{11}{93}{Oral Session: Energy and Metabolism}{section*.163}{}}
\newlabel{entry:OS-37}{{11}{94}{Oral Session: Evolution}{section*.165}{}}
\newlabel{entry:OS-38}{{11}{94}{Oral Session: Evolution}{section*.166}{}}
\newlabel{entry:OS-39}{{11}{94}{Oral Session: Evolution}{section*.167}{}}
\newlabel{entry:OS-40}{{11}{95}{Oral Session: Evolution}{section*.168}{}}
\newlabel{entry:OS-41}{{11}{95}{Oral Session: Evolution}{section*.169}{}}
\newlabel{entry:OS-42}{{11}{96}{Oral Session: Evolution}{section*.170}{}}
\newlabel{entry:OS-61}{{11}{97}{Oral Session: Evolution and Biogeography}{section*.172}{}}
\newlabel{entry:OS-62}{{11}{97}{Oral Session: Evolution and Biogeography}{section*.173}{}}
\newlabel{entry:OS-63}{{11}{98}{Oral Session: Evolution and Biogeography}{section*.174}{}}
\newlabel{entry:OS-64}{{11}{98}{Oral Session: Evolution and Biogeography}{section*.175}{}}
\newlabel{entry:OS-65}{{11}{98}{Oral Session: Evolution and Biogeography}{section*.176}{}}
\newlabel{entry:OS-66}{{11}{99}{Oral Session: Evolution and Biogeography}{section*.177}{}}
\newlabel{entry:OS-91}{{11}{100}{Oral Session: Foraging and Diet}{section*.179}{}}
\newlabel{entry:OS-92}{{11}{100}{Oral Session: Foraging and Diet}{section*.180}{}}
\newlabel{entry:OS-93}{{11}{101}{Oral Session: Foraging and Diet}{section*.181}{}}
\newlabel{entry:OS-94}{{11}{101}{Oral Session: Foraging and Diet}{section*.182}{}}
\newlabel{entry:OS-95}{{11}{102}{Oral Session: Foraging and Diet}{section*.183}{}}
\newlabel{entry:OS-96}{{11}{102}{Oral Session: Foraging and Diet}{section*.184}{}}
\newlabel{entry:OS-25}{{11}{103}{Oral Session: Migration}{section*.186}{}}
\newlabel{entry:OS-26}{{11}{103}{Oral Session: Migration}{section*.187}{}}
\newlabel{entry:OS-27}{{11}{104}{Oral Session: Migration}{section*.188}{}}
\newlabel{entry:OS-28}{{11}{104}{Oral Session: Migration}{section*.189}{}}
\newlabel{entry:OS-29}{{11}{105}{Oral Session: Migration}{section*.190}{}}
\newlabel{entry:OS-30}{{11}{105}{Oral Session: Migration}{section*.191}{}}
\newlabel{entry:OS-55}{{11}{106}{Oral Session: Migration Routes}{section*.193}{}}
\newlabel{entry:OS-56}{{11}{106}{Oral Session: Migration Routes}{section*.194}{}}
\newlabel{entry:OS-57}{{11}{107}{Oral Session: Migration Routes}{section*.195}{}}
\newlabel{entry:OS-58}{{11}{108}{Oral Session: Migration Routes}{section*.196}{}}
\newlabel{entry:OS-59}{{11}{108}{Oral Session: Migration Routes}{section*.197}{}}
\newlabel{entry:OS-60}{{11}{109}{Oral Session: Migration Routes}{section*.198}{}}
\newlabel{entry:OS-103}{{11}{110}{Oral Session: Navigation}{section*.200}{}}
\newlabel{entry:OS-104}{{11}{110}{Oral Session: Navigation}{section*.201}{}}
\newlabel{entry:OS-105}{{11}{111}{Oral Session: Navigation}{section*.202}{}}
\newlabel{entry:OS-106}{{11}{111}{Oral Session: Navigation}{section*.203}{}}
\newlabel{entry:OS-107}{{11}{112}{Oral Session: Navigation}{section*.204}{}}
\newlabel{entry:OS-108}{{11}{112}{Oral Session: Navigation}{section*.205}{}}
\newlabel{entry:OS-67}{{11}{113}{Oral Session: Parasites and Disease}{section*.207}{}}
\newlabel{entry:OS-68}{{11}{113}{Oral Session: Parasites and Disease}{section*.208}{}}
\newlabel{entry:OS-69}{{11}{114}{Oral Session: Parasites and Disease}{section*.209}{}}
\newlabel{entry:OS-70}{{11}{114}{Oral Session: Parasites and Disease}{section*.210}{}}
\newlabel{entry:OS-71}{{11}{114}{Oral Session: Parasites and Disease}{section*.211}{}}
\newlabel{entry:OS-72}{{11}{115}{Oral Session: Parasites and Disease}{section*.212}{}}
\newlabel{entry:OS-31}{{11}{115}{Oral Session: Physiology}{section*.214}{}}
\newlabel{entry:OS-32}{{11}{116}{Oral Session: Physiology}{section*.215}{}}
\newlabel{entry:OS-33}{{11}{116}{Oral Session: Physiology}{section*.216}{}}
\newlabel{entry:OS-34}{{11}{117}{Oral Session: Physiology}{section*.217}{}}
\newlabel{entry:OS-35}{{11}{117}{Oral Session: Physiology}{section*.218}{}}
\newlabel{entry:OS-36}{{11}{118}{Oral Session: Physiology}{section*.219}{}}
\newlabel{entry:OS-115}{{11}{118}{Oral Session: Physiology of Migration}{section*.221}{}}
\newlabel{entry:OS-116}{{11}{119}{Oral Session: Physiology of Migration}{section*.222}{}}
\newlabel{entry:OS-117}{{11}{119}{Oral Session: Physiology of Migration}{section*.223}{}}
\newlabel{entry:OS-118}{{11}{120}{Oral Session: Physiology of Migration}{section*.224}{}}
\newlabel{entry:OS-119}{{11}{120}{Oral Session: Physiology of Migration}{section*.225}{}}
\newlabel{entry:OS-120}{{11}{121}{Oral Session: Physiology of Migration}{section*.226}{}}
\newlabel{entry:OS-73}{{11}{122}{Oral Session: Population Ecology}{section*.228}{}}
\newlabel{entry:OS-74}{{11}{122}{Oral Session: Population Ecology}{section*.229}{}}
\newlabel{entry:OS-75}{{11}{123}{Oral Session: Population Ecology}{section*.230}{}}
\newlabel{entry:OS-76}{{11}{123}{Oral Session: Population Ecology}{section*.231}{}}
\newlabel{entry:OS-77}{{11}{124}{Oral Session: Population Ecology}{section*.232}{}}
\newlabel{entry:OS-78}{{11}{124}{Oral Session: Population Ecology}{section*.233}{}}
\newlabel{entry:OS-109}{{11}{125}{Oral Session: Social Interactions}{section*.235}{}}
\newlabel{entry:OS-110}{{11}{125}{Oral Session: Social Interactions}{section*.236}{}}
\newlabel{entry:OS-111}{{11}{125}{Oral Session: Social Interactions}{section*.237}{}}
\newlabel{entry:OS-112}{{11}{126}{Oral Session: Social Interactions}{section*.238}{}}
\newlabel{entry:OS-113}{{11}{127}{Oral Session: Social Interactions}{section*.239}{}}
\newlabel{entry:OS-114}{{11}{127}{Oral Session: Social Interactions}{section*.240}{}}
\newlabel{entry:OS-100}{{11}{128}{Oral Session: Species Interactions}{section*.242}{}}
\newlabel{entry:OS-101}{{11}{128}{Oral Session: Species Interactions}{section*.243}{}}
\newlabel{entry:OS-102}{{11}{129}{Oral Session: Species Interactions}{section*.244}{}}
\newlabel{entry:OS-97}{{11}{129}{Oral Session: Species Interactions}{section*.245}{}}
\newlabel{entry:OS-98}{{11}{130}{Oral Session: Species Interactions}{section*.246}{}}
\newlabel{entry:OS-99}{{11}{130}{Oral Session: Species Interactions}{section*.247}{}}
\newlabel{entry:OS-85}{{11}{131}{Oral Session: Timing of Migration}{section*.249}{}}
\newlabel{entry:OS-86}{{11}{131}{Oral Session: Timing of Migration}{section*.250}{}}
\newlabel{entry:OS-87}{{11}{132}{Oral Session: Timing of Migration}{section*.251}{}}
\newlabel{entry:OS-88}{{11}{132}{Oral Session: Timing of Migration}{section*.252}{}}
\newlabel{entry:OS-89}{{11}{133}{Oral Session: Timing of Migration}{section*.253}{}}
\newlabel{entry:OS-90}{{11}{133}{Oral Session: Timing of Migration}{section*.254}{}}
\newlabel{entry:OS-49}{{11}{134}{Oral Session: Urban Birds}{section*.256}{}}
\newlabel{entry:OS-50}{{11}{134}{Oral Session: Urban Birds}{section*.257}{}}
\newlabel{entry:OS-51}{{11}{135}{Oral Session: Urban Birds}{section*.258}{}}
\newlabel{entry:OS-52}{{11}{135}{Oral Session: Urban Birds}{section*.259}{}}
\newlabel{entry:OS-53}{{11}{136}{Oral Session: Urban Birds}{section*.260}{}}
\newlabel{entry:OS-54}{{11}{136}{Oral Session: Urban Birds}{section*.261}{}}
\BKM@entry{id=33,open,dest={636861707465722E3132},flags=2,srcline={4170}}{313220506F7374657273}
\@writefile{toc}{\contentsline {chapter}{\numberline {12}Posters}{138}{chapter.12}\protected@file@percent }
\@writefile{lof}{\addvspace {10\p@ }}
\@writefile{lot}{\addvspace {10\p@ }}
\pgfsyspdfmark {pgfid32}{0}{55380990}
\pgfsyspdfmark {pgfid31}{3729359}{50766895}
\newlabel{entry:PP-2}{{12}{138}{Poster Session (even numbers)}{section*.263}{}}
\newlabel{entry:PP-4}{{12}{139}{Poster Session (even numbers)}{section*.264}{}}
\newlabel{entry:PP-6}{{12}{139}{Poster Session (even numbers)}{section*.265}{}}
\newlabel{entry:PP-8}{{12}{139}{Poster Session (even numbers)}{section*.266}{}}
\newlabel{entry:PP-10}{{12}{140}{Poster Session (even numbers)}{section*.267}{}}
\newlabel{entry:PP-12}{{12}{141}{Poster Session (even numbers)}{section*.268}{}}
\newlabel{entry:PP-14}{{12}{141}{Poster Session (even numbers)}{section*.269}{}}
\newlabel{entry:PP-18}{{12}{142}{Poster Session (even numbers)}{section*.270}{}}
\newlabel{entry:PP-20}{{12}{142}{Poster Session (even numbers)}{section*.271}{}}
\newlabel{entry:PP-22}{{12}{142}{Poster Session (even numbers)}{section*.272}{}}
\newlabel{entry:PP-24}{{12}{143}{Poster Session (even numbers)}{section*.273}{}}
\newlabel{entry:PP-26}{{12}{143}{Poster Session (even numbers)}{section*.274}{}}
\newlabel{entry:PP-28}{{12}{144}{Poster Session (even numbers)}{section*.275}{}}
\newlabel{entry:PP-30}{{12}{144}{Poster Session (even numbers)}{section*.276}{}}
\newlabel{entry:PP-32}{{12}{145}{Poster Session (even numbers)}{section*.277}{}}
\newlabel{entry:PP-36}{{12}{145}{Poster Session (even numbers)}{section*.278}{}}
\newlabel{entry:PP-38}{{12}{146}{Poster Session (even numbers)}{section*.279}{}}
\newlabel{entry:PP-42}{{12}{146}{Poster Session (even numbers)}{section*.280}{}}
\newlabel{entry:PP-44}{{12}{147}{Poster Session (even numbers)}{section*.281}{}}
\newlabel{entry:PP-46}{{12}{147}{Poster Session (even numbers)}{section*.282}{}}
\newlabel{entry:PP-48}{{12}{148}{Poster Session (even numbers)}{section*.283}{}}
\newlabel{entry:PP-50}{{12}{148}{Poster Session (even numbers)}{section*.284}{}}
\newlabel{entry:PP-52}{{12}{149}{Poster Session (even numbers)}{section*.285}{}}
\newlabel{entry:PP-54}{{12}{149}{Poster Session (even numbers)}{section*.286}{}}
\newlabel{entry:PP-56}{{12}{150}{Poster Session (even numbers)}{section*.287}{}}
\newlabel{entry:PP-58}{{12}{150}{Poster Session (even numbers)}{section*.288}{}}
\newlabel{entry:PP-60}{{12}{151}{Poster Session (even numbers)}{section*.289}{}}
\newlabel{entry:PP-62}{{12}{151}{Poster Session (even numbers)}{section*.290}{}}
\newlabel{entry:PP-64}{{12}{152}{Poster Session (even numbers)}{section*.291}{}}
\newlabel{entry:PP-66}{{12}{152}{Poster Session (even numbers)}{section*.292}{}}
\newlabel{entry:PP-68}{{12}{153}{Poster Session (even numbers)}{section*.293}{}}
\newlabel{entry:PP-70}{{12}{153}{Poster Session (even numbers)}{section*.294}{}}
\newlabel{entry:PP-72}{{12}{154}{Poster Session (even numbers)}{section*.295}{}}
\newlabel{entry:PP-74}{{12}{154}{Poster Session (even numbers)}{section*.296}{}}
\newlabel{entry:PP-76}{{12}{154}{Poster Session (even numbers)}{section*.297}{}}
\newlabel{entry:PP-78}{{12}{155}{Poster Session (even numbers)}{section*.298}{}}
\newlabel{entry:PP-80}{{12}{155}{Poster Session (even numbers)}{section*.299}{}}
\newlabel{entry:PP-82}{{12}{156}{Poster Session (even numbers)}{section*.300}{}}
\newlabel{entry:PP-84}{{12}{156}{Poster Session (even numbers)}{section*.301}{}}
\newlabel{entry:PP-88}{{12}{157}{Poster Session (even numbers)}{section*.302}{}}
\newlabel{entry:PP-90}{{12}{157}{Poster Session (even numbers)}{section*.303}{}}
\newlabel{entry:PP-92}{{12}{158}{Poster Session (even numbers)}{section*.304}{}}
\newlabel{entry:PP-94}{{12}{158}{Poster Session (even numbers)}{section*.305}{}}
\newlabel{entry:PP-98}{{12}{159}{Poster Session (even numbers)}{section*.306}{}}
\newlabel{entry:PP-100}{{12}{159}{Poster Session (even numbers)}{section*.307}{}}
\newlabel{entry:PP-102}{{12}{160}{Poster Session (even numbers)}{section*.308}{}}
\newlabel{entry:PP-104}{{12}{160}{Poster Session (even numbers)}{section*.309}{}}
\newlabel{entry:PP-106}{{12}{161}{Poster Session (even numbers)}{section*.310}{}}
\newlabel{entry:PP-108}{{12}{161}{Poster Session (even numbers)}{section*.311}{}}
\newlabel{entry:PP-110}{{12}{162}{Poster Session (even numbers)}{section*.312}{}}
\newlabel{entry:PP-112}{{12}{162}{Poster Session (even numbers)}{section*.313}{}}
\newlabel{entry:PP-114}{{12}{163}{Poster Session (even numbers)}{section*.314}{}}
\newlabel{entry:PP-120}{{12}{163}{Poster Session (even numbers)}{section*.315}{}}
\newlabel{entry:PP-122}{{12}{164}{Poster Session (even numbers)}{section*.316}{}}
\newlabel{entry:PP-124}{{12}{164}{Poster Session (even numbers)}{section*.317}{}}
\newlabel{entry:PP-126}{{12}{165}{Poster Session (even numbers)}{section*.318}{}}
\newlabel{entry:PP-128}{{12}{165}{Poster Session (even numbers)}{section*.319}{}}
\newlabel{entry:PP-130}{{12}{166}{Poster Session (even numbers)}{section*.320}{}}
\newlabel{entry:PP-132}{{12}{166}{Poster Session (even numbers)}{section*.321}{}}
\newlabel{entry:PP-134}{{12}{167}{Poster Session (even numbers)}{section*.322}{}}
\newlabel{entry:PP-136}{{12}{167}{Poster Session (even numbers)}{section*.323}{}}
\newlabel{entry:PP-138}{{12}{168}{Poster Session (even numbers)}{section*.324}{}}
\newlabel{entry:PP-140}{{12}{168}{Poster Session (even numbers)}{section*.325}{}}
\newlabel{entry:PP-142}{{12}{169}{Poster Session (even numbers)}{section*.326}{}}
\newlabel{entry:PP-144}{{12}{169}{Poster Session (even numbers)}{section*.327}{}}
\newlabel{entry:PP-146}{{12}{170}{Poster Session (even numbers)}{section*.328}{}}
\newlabel{entry:PP-148}{{12}{170}{Poster Session (even numbers)}{section*.329}{}}
\newlabel{entry:PP-150}{{12}{171}{Poster Session (even numbers)}{section*.330}{}}
\newlabel{entry:PP-152}{{12}{171}{Poster Session (even numbers)}{section*.331}{}}
\newlabel{entry:PP-154}{{12}{172}{Poster Session (even numbers)}{section*.332}{}}
\newlabel{entry:PP-156}{{12}{172}{Poster Session (even numbers)}{section*.333}{}}
\newlabel{entry:PP-158}{{12}{173}{Poster Session (even numbers)}{section*.334}{}}
\newlabel{entry:PP-160}{{12}{173}{Poster Session (even numbers)}{section*.335}{}}
\newlabel{entry:PP-162}{{12}{174}{Poster Session (even numbers)}{section*.336}{}}
\newlabel{entry:PP-164}{{12}{174}{Poster Session (even numbers)}{section*.337}{}}
\newlabel{entry:PP-166}{{12}{175}{Poster Session (even numbers)}{section*.338}{}}
\newlabel{entry:PP-168}{{12}{175}{Poster Session (even numbers)}{section*.339}{}}
\newlabel{entry:PP-170}{{12}{176}{Poster Session (even numbers)}{section*.340}{}}
\newlabel{entry:PP-172}{{12}{176}{Poster Session (even numbers)}{section*.341}{}}
\newlabel{entry:PP-3}{{12}{177}{Poster Session (odd numbers)}{section*.343}{}}
\newlabel{entry:PP-5}{{12}{177}{Poster Session (odd numbers)}{section*.344}{}}
\newlabel{entry:PP-7}{{12}{178}{Poster Session (odd numbers)}{section*.345}{}}
\newlabel{entry:PP-9}{{12}{178}{Poster Session (odd numbers)}{section*.346}{}}
\newlabel{entry:PP-11}{{12}{179}{Poster Session (odd numbers)}{section*.347}{}}
\newlabel{entry:PP-13}{{12}{179}{Poster Session (odd numbers)}{section*.348}{}}
\newlabel{entry:PP-15}{{12}{180}{Poster Session (odd numbers)}{section*.349}{}}
\newlabel{entry:PP-19}{{12}{180}{Poster Session (odd numbers)}{section*.350}{}}
\newlabel{entry:PP-21}{{12}{181}{Poster Session (odd numbers)}{section*.351}{}}
\newlabel{entry:PP-23}{{12}{181}{Poster Session (odd numbers)}{section*.352}{}}
\newlabel{entry:PP-25}{{12}{182}{Poster Session (odd numbers)}{section*.353}{}}
\newlabel{entry:PP-27}{{12}{182}{Poster Session (odd numbers)}{section*.354}{}}
\newlabel{entry:PP-29}{{12}{183}{Poster Session (odd numbers)}{section*.355}{}}
\newlabel{entry:PP-31}{{12}{183}{Poster Session (odd numbers)}{section*.356}{}}
\newlabel{entry:PP-33}{{12}{183}{Poster Session (odd numbers)}{section*.357}{}}
\newlabel{entry:PP-35}{{12}{184}{Poster Session (odd numbers)}{section*.358}{}}
\newlabel{entry:PP-37}{{12}{184}{Poster Session (odd numbers)}{section*.359}{}}
\newlabel{entry:PP-39}{{12}{185}{Poster Session (odd numbers)}{section*.360}{}}
\newlabel{entry:PP-41}{{12}{185}{Poster Session (odd numbers)}{section*.361}{}}
\newlabel{entry:PP-43}{{12}{186}{Poster Session (odd numbers)}{section*.362}{}}
\newlabel{entry:PP-45}{{12}{186}{Poster Session (odd numbers)}{section*.363}{}}
\newlabel{entry:PP-47}{{12}{187}{Poster Session (odd numbers)}{section*.364}{}}
\newlabel{entry:PP-49}{{12}{187}{Poster Session (odd numbers)}{section*.365}{}}
\newlabel{entry:PP-51}{{12}{188}{Poster Session (odd numbers)}{section*.366}{}}
\newlabel{entry:PP-53}{{12}{188}{Poster Session (odd numbers)}{section*.367}{}}
\newlabel{entry:PP-55}{{12}{189}{Poster Session (odd numbers)}{section*.368}{}}
\newlabel{entry:PP-57}{{12}{189}{Poster Session (odd numbers)}{section*.369}{}}
\newlabel{entry:PP-59}{{12}{190}{Poster Session (odd numbers)}{section*.370}{}}
\newlabel{entry:PP-61}{{12}{190}{Poster Session (odd numbers)}{section*.371}{}}
\newlabel{entry:PP-63}{{12}{191}{Poster Session (odd numbers)}{section*.372}{}}
\newlabel{entry:PP-65}{{12}{191}{Poster Session (odd numbers)}{section*.373}{}}
\newlabel{entry:PP-67}{{12}{192}{Poster Session (odd numbers)}{section*.374}{}}
\newlabel{entry:PP-69}{{12}{192}{Poster Session (odd numbers)}{section*.375}{}}
\newlabel{entry:PP-71}{{12}{193}{Poster Session (odd numbers)}{section*.376}{}}
\newlabel{entry:PP-73}{{12}{193}{Poster Session (odd numbers)}{section*.377}{}}
\newlabel{entry:PP-75}{{12}{193}{Poster Session (odd numbers)}{section*.378}{}}
\newlabel{entry:PP-77}{{12}{194}{Poster Session (odd numbers)}{section*.379}{}}
\newlabel{entry:PP-79}{{12}{194}{Poster Session (odd numbers)}{section*.380}{}}
\newlabel{entry:PP-81}{{12}{195}{Poster Session (odd numbers)}{section*.381}{}}
\newlabel{entry:PP-83}{{12}{195}{Poster Session (odd numbers)}{section*.382}{}}
\newlabel{entry:PP-85}{{12}{196}{Poster Session (odd numbers)}{section*.383}{}}
\newlabel{entry:PP-87}{{12}{196}{Poster Session (odd numbers)}{section*.384}{}}
\newlabel{entry:PP-89}{{12}{197}{Poster Session (odd numbers)}{section*.385}{}}
\newlabel{entry:PP-91}{{12}{197}{Poster Session (odd numbers)}{section*.386}{}}
\newlabel{entry:PP-93}{{12}{198}{Poster Session (odd numbers)}{section*.387}{}}
\newlabel{entry:PP-95}{{12}{198}{Poster Session (odd numbers)}{section*.388}{}}
\newlabel{entry:PP-97}{{12}{199}{Poster Session (odd numbers)}{section*.389}{}}
\newlabel{entry:PP-99}{{12}{199}{Poster Session (odd numbers)}{section*.390}{}}
\newlabel{entry:PP-101}{{12}{200}{Poster Session (odd numbers)}{section*.391}{}}
\newlabel{entry:PP-103}{{12}{200}{Poster Session (odd numbers)}{section*.392}{}}
\newlabel{entry:PP-107}{{12}{201}{Poster Session (odd numbers)}{section*.393}{}}
\newlabel{entry:PP-109}{{12}{201}{Poster Session (odd numbers)}{section*.394}{}}
\newlabel{entry:PP-111}{{12}{202}{Poster Session (odd numbers)}{section*.395}{}}
\newlabel{entry:PP-115}{{12}{202}{Poster Session (odd numbers)}{section*.396}{}}
\newlabel{entry:PP-119}{{12}{203}{Poster Session (odd numbers)}{section*.397}{}}
\newlabel{entry:PP-121}{{12}{203}{Poster Session (odd numbers)}{section*.398}{}}
\newlabel{entry:PP-123}{{12}{204}{Poster Session (odd numbers)}{section*.399}{}}
\newlabel{entry:PP-125}{{12}{204}{Poster Session (odd numbers)}{section*.400}{}}
\newlabel{entry:PP-127}{{12}{205}{Poster Session (odd numbers)}{section*.401}{}}
\newlabel{entry:PP-129}{{12}{205}{Poster Session (odd numbers)}{section*.402}{}}
\newlabel{entry:PP-131}{{12}{206}{Poster Session (odd numbers)}{section*.403}{}}
\newlabel{entry:PP-133}{{12}{206}{Poster Session (odd numbers)}{section*.404}{}}
\newlabel{entry:PP-135}{{12}{207}{Poster Session (odd numbers)}{section*.405}{}}
\newlabel{entry:PP-137}{{12}{207}{Poster Session (odd numbers)}{section*.406}{}}
\newlabel{entry:PP-139}{{12}{208}{Poster Session (odd numbers)}{section*.407}{}}
\newlabel{entry:PP-141}{{12}{208}{Poster Session (odd numbers)}{section*.408}{}}
\newlabel{entry:PP-143}{{12}{208}{Poster Session (odd numbers)}{section*.409}{}}
\newlabel{entry:PP-149}{{12}{209}{Poster Session (odd numbers)}{section*.410}{}}
\newlabel{entry:PP-151}{{12}{209}{Poster Session (odd numbers)}{section*.411}{}}
\newlabel{entry:PP-153}{{12}{210}{Poster Session (odd numbers)}{section*.412}{}}
\newlabel{entry:PP-155}{{12}{210}{Poster Session (odd numbers)}{section*.413}{}}
\newlabel{entry:PP-157}{{12}{211}{Poster Session (odd numbers)}{section*.414}{}}
\newlabel{entry:PP-159}{{12}{211}{Poster Session (odd numbers)}{section*.415}{}}
\newlabel{entry:PP-161}{{12}{212}{Poster Session (odd numbers)}{section*.416}{}}
\newlabel{entry:PP-163}{{12}{212}{Poster Session (odd numbers)}{section*.417}{}}
\newlabel{entry:PP-165}{{12}{213}{Poster Session (odd numbers)}{section*.418}{}}
\newlabel{entry:PP-167}{{12}{213}{Poster Session (odd numbers)}{section*.419}{}}
\newlabel{entry:PP-169}{{12}{214}{Poster Session (odd numbers)}{section*.420}{}}
\newlabel{entry:PP-171}{{12}{214}{Poster Session (odd numbers)}{section*.421}{}}
\BKM@entry{id=34,open,dest={73656374696F6E2A2E343233},color={.46667 .61569 .27843},flags=2,srcline={331}}{494E444558}
\ttl@writefile{ptc}{\ttl@stoptoc{default@3}}
\ttl@writefile{ptc}{\ttl@starttoc{default@4}}
\pgfsyspdfmark {pgfid34}{0}{55380990}
\pgfsyspdfmark {pgfid33}{4843471}{34736006}
\@writefile{toc}{\contentsline {part}{\setlength  \fboxsep {0pt}\noindent \colorbox {eougreen!40}{\strut  \parbox [c][.7cm]{\linewidth }{\Large  \sffamily  \centering INDEX\hskip 1em\relax \mbox  {}}}}{215}{section*.423}\protected@file@percent }
\BKM@entry{id=35,open,dest={73656374696F6E2A2E343234},flags=2,srcline={339}}{417574686F7220496E646578}
\pgfsyspdfmark {pgfid36}{0}{55380990}
\pgfsyspdfmark {pgfid35}{3729359}{51487791}
\@writefile{toc}{\contentsline {chapter}{\leavevmode {\color  {eougreen}Author Index}}{216}{section*.424}\protected@file@percent }
\ttl@finishall
\gdef \@abspage@last{226}
